captures/bulk-out-aa5500ff.vcd
$date
	2022-05-24 13:21
$end
$timescale 0ps $end
$scope dumped_signals $end
$var wire 8 ! usb_utmi_rx_data $end
$var wire 1 " usb_utmi_rx_active $end
$var wire 1 # usb_utmi_rx_valid $end
$var wire 8 $ usb_utmi_tx_data $end
$var wire 1 % usb_utmi_tx_valid $end
$var wire 1 & usb_utmi_tx_ready $end
$var wire 2 ' usb_utmi_xcvr_select $end
$var wire 1 ( usb_utmi_term_select $end
$var wire 2 ) usb_utmi_op_mode $end
$var wire 1 * usb_utmi_suspend $end
$var wire 1 + usb_utmi_id_pullup $end
$var wire 1 , usb_utmi_dm_pulldown $end
$var wire 1 - usb_utmi_dp_pulldown $end
$var wire 1 . usb_utmi_chrg_vbus $end
$var wire 1 / usb_utmi_dischrg_vbus $end
$var wire 1 0 usb_utmi_use_external_vbus_indicator $end
$var wire 2 1 usb_utmi_line_state $end
$var wire 1 2 usb_utmi_vbus_valid $end
$var wire 1 3 usb_utmi_session_valid $end
$var wire 1 4 usb_utmi_session_end $end
$var wire 1 5 usb_utmi_rx_error $end
$var wire 1 6 usb_utmi_host_disconnect $end
$var wire 1 7 usb_utmi_id_digital $end
$var wire 32 8 usb_utmi_rx_data32 $end
$var wire 1 9 scope_clk $end
$var wire 1 : scope_trig $end
$unscope  $end
$enddefinitions  $end
$dumpvars
bxxxxxxxx !
bx "
bx #
bxxxxxxxx $
bx %
bx &
bxx '
bx (
bxx )
bx *
bx +
bx ,
bx -
bx .
bx /
bx 0
bxx 1
bx 2
bx 3
bx 4
bx 5
bx 6
bx 7
bxxxxxxxxxxxxxxxxxxxxxxxxxxxxxxxx 8
bx 9
bx :
$end
#0
b00000000 !
b0 "
b0 #
b00000000 $
b0 %
b0 &
b00 '
b0 (
b00 )
b0 *
b0 +
b0 ,
b0 -
b0 .
b0 /
b0 0
b00 1
b1 2
b0 3
b0 4
b0 5
b0 6
b0 7
b00000000000000000000000000000000 8
b1 9
b0 :
#1
b00000000 !
b0 "
b0 #
b00000000 $
b0 %
b0 &
b00 '
b0 (
b00 )
b0 *
b0 +
b0 ,
b0 -
b0 .
b0 /
b0 0
b00 1
b1 2
b0 3
b0 4
b0 5
b0 6
b0 7
b00000000000000000000000000000000 8
b0 9
b0 :
#2
b00000000 !
b0 "
b0 #
b00000000 $
b0 %
b0 &
b00 '
b0 (
b00 )
b0 *
b0 +
b0 ,
b0 -
b0 .
b0 /
b0 0
b00 1
b1 2
b0 3
b0 4
b0 5
b0 6
b0 7
b00000000000000000000000000000000 8
b1 9
b0 :
#3
b00000000 !
b0 "
b0 #
b00000000 $
b0 %
b0 &
b00 '
b0 (
b00 )
b0 *
b0 +
b0 ,
b0 -
b0 .
b0 /
b0 0
b00 1
b1 2
b0 3
b0 4
b0 5
b0 6
b0 7
b00000000000000000000000000000000 8
b0 9
b0 :
#4
b00000000 !
b0 "
b0 #
b00000000 $
b0 %
b0 &
b00 '
b0 (
b00 )
b0 *
b0 +
b0 ,
b0 -
b0 .
b0 /
b0 0
b00 1
b1 2
b0 3
b0 4
b0 5
b0 6
b0 7
b00000000000000000000000000000000 8
b1 9
b0 :
#5
b00000000 !
b0 "
b0 #
b00000000 $
b0 %
b0 &
b00 '
b0 (
b00 )
b0 *
b0 +
b0 ,
b0 -
b0 .
b0 /
b0 0
b00 1
b1 2
b0 3
b0 4
b0 5
b0 6
b0 7
b00000000000000000000000000000000 8
b0 9
b0 :
#6
b00000000 !
b0 "
b0 #
b00000000 $
b0 %
b0 &
b00 '
b0 (
b00 )
b0 *
b0 +
b0 ,
b0 -
b0 .
b0 /
b0 0
b00 1
b1 2
b0 3
b0 4
b0 5
b0 6
b0 7
b00000000000000000000000000000000 8
b1 9
b0 :
#7
b00000000 !
b0 "
b0 #
b00000000 $
b0 %
b0 &
b00 '
b0 (
b00 )
b0 *
b0 +
b0 ,
b0 -
b0 .
b0 /
b0 0
b00 1
b1 2
b0 3
b0 4
b0 5
b0 6
b0 7
b00000000000000000000000000000000 8
b0 9
b0 :
#8
b00000000 !
b0 "
b0 #
b00000000 $
b0 %
b0 &
b00 '
b0 (
b00 )
b0 *
b0 +
b0 ,
b0 -
b0 .
b0 /
b0 0
b00 1
b1 2
b0 3
b0 4
b0 5
b0 6
b0 7
b00000000000000000000000000000000 8
b1 9
b0 :
#9
b00000000 !
b0 "
b0 #
b00000000 $
b0 %
b0 &
b00 '
b0 (
b00 )
b0 *
b0 +
b0 ,
b0 -
b0 .
b0 /
b0 0
b00 1
b1 2
b0 3
b0 4
b0 5
b0 6
b0 7
b00000000000000000000000000000000 8
b0 9
b0 :
#10
b00000000 !
b0 "
b0 #
b00000000 $
b0 %
b0 &
b00 '
b0 (
b00 )
b0 *
b0 +
b0 ,
b0 -
b0 .
b0 /
b0 0
b00 1
b1 2
b0 3
b0 4
b0 5
b0 6
b0 7
b00000000000000000000000000000000 8
b1 9
b0 :
#11
b00000000 !
b0 "
b0 #
b00000000 $
b0 %
b0 &
b00 '
b0 (
b00 )
b0 *
b0 +
b0 ,
b0 -
b0 .
b0 /
b0 0
b00 1
b1 2
b0 3
b0 4
b0 5
b0 6
b0 7
b00000000000000000000000000000000 8
b0 9
b0 :
#12
b00000000 !
b0 "
b0 #
b00000000 $
b0 %
b0 &
b00 '
b0 (
b00 )
b0 *
b0 +
b0 ,
b0 -
b0 .
b0 /
b0 0
b00 1
b1 2
b0 3
b0 4
b0 5
b0 6
b0 7
b00000000000000000000000000000000 8
b1 9
b0 :
#13
b00000000 !
b0 "
b0 #
b00000000 $
b0 %
b0 &
b00 '
b0 (
b00 )
b0 *
b0 +
b0 ,
b0 -
b0 .
b0 /
b0 0
b00 1
b1 2
b0 3
b0 4
b0 5
b0 6
b0 7
b00000000000000000000000000000000 8
b0 9
b0 :
#14
b00000000 !
b0 "
b0 #
b00000000 $
b0 %
b0 &
b00 '
b0 (
b00 )
b0 *
b0 +
b0 ,
b0 -
b0 .
b0 /
b0 0
b00 1
b1 2
b0 3
b0 4
b0 5
b0 6
b0 7
b00000000000000000000000000000000 8
b1 9
b0 :
#15
b00000000 !
b0 "
b0 #
b00000000 $
b0 %
b0 &
b00 '
b0 (
b00 )
b0 *
b0 +
b0 ,
b0 -
b0 .
b0 /
b0 0
b00 1
b1 2
b0 3
b0 4
b0 5
b0 6
b0 7
b00000000000000000000000000000000 8
b0 9
b0 :
#16
b00000000 !
b0 "
b0 #
b00000000 $
b0 %
b0 &
b00 '
b0 (
b00 )
b0 *
b0 +
b0 ,
b0 -
b0 .
b0 /
b0 0
b00 1
b1 2
b0 3
b0 4
b0 5
b0 6
b0 7
b00000000000000000000000000000000 8
b1 9
b0 :
#17
b00000000 !
b0 "
b0 #
b00000000 $
b0 %
b0 &
b00 '
b0 (
b00 )
b0 *
b0 +
b0 ,
b0 -
b0 .
b0 /
b0 0
b00 1
b1 2
b0 3
b0 4
b0 5
b0 6
b0 7
b00000000000000000000000000000000 8
b0 9
b0 :
#18
b00000000 !
b0 "
b0 #
b00000000 $
b0 %
b0 &
b00 '
b0 (
b00 )
b0 *
b0 +
b0 ,
b0 -
b0 .
b0 /
b0 0
b00 1
b1 2
b0 3
b0 4
b0 5
b0 6
b0 7
b00000000000000000000000000000000 8
b1 9
b0 :
#19
b00000000 !
b0 "
b0 #
b00000000 $
b0 %
b0 &
b00 '
b0 (
b00 )
b0 *
b0 +
b0 ,
b0 -
b0 .
b0 /
b0 0
b00 1
b1 2
b0 3
b0 4
b0 5
b0 6
b0 7
b00000000000000000000000000000000 8
b0 9
b0 :
#20
b00000000 !
b0 "
b0 #
b00000000 $
b0 %
b0 &
b00 '
b0 (
b00 )
b0 *
b0 +
b0 ,
b0 -
b0 .
b0 /
b0 0
b00 1
b1 2
b0 3
b0 4
b0 5
b0 6
b0 7
b00000000000000000000000000000000 8
b1 9
b0 :
#21
b00000000 !
b0 "
b0 #
b00000000 $
b0 %
b0 &
b00 '
b0 (
b00 )
b0 *
b0 +
b0 ,
b0 -
b0 .
b0 /
b0 0
b00 1
b1 2
b0 3
b0 4
b0 5
b0 6
b0 7
b00000000000000000000000000000000 8
b0 9
b0 :
#22
b00000000 !
b0 "
b0 #
b00000000 $
b0 %
b0 &
b00 '
b0 (
b00 )
b0 *
b0 +
b0 ,
b0 -
b0 .
b0 /
b0 0
b00 1
b1 2
b0 3
b0 4
b0 5
b0 6
b0 7
b00000000000000000000000000000000 8
b1 9
b0 :
#23
b00000000 !
b0 "
b0 #
b00000000 $
b0 %
b0 &
b00 '
b0 (
b00 )
b0 *
b0 +
b0 ,
b0 -
b0 .
b0 /
b0 0
b00 1
b1 2
b0 3
b0 4
b0 5
b0 6
b0 7
b00000000000000000000000000000000 8
b0 9
b0 :
#24
b00000000 !
b0 "
b0 #
b00000000 $
b0 %
b0 &
b00 '
b0 (
b00 )
b0 *
b0 +
b0 ,
b0 -
b0 .
b0 /
b0 0
b00 1
b1 2
b0 3
b0 4
b0 5
b0 6
b0 7
b00000000000000000000000000000000 8
b1 9
b0 :
#25
b00000000 !
b0 "
b0 #
b00000000 $
b0 %
b0 &
b00 '
b0 (
b00 )
b0 *
b0 +
b0 ,
b0 -
b0 .
b0 /
b0 0
b00 1
b1 2
b0 3
b0 4
b0 5
b0 6
b0 7
b00000000000000000000000000000000 8
b0 9
b0 :
#26
b00000000 !
b0 "
b0 #
b00000000 $
b0 %
b0 &
b00 '
b0 (
b00 )
b0 *
b0 +
b0 ,
b0 -
b0 .
b0 /
b0 0
b00 1
b1 2
b0 3
b0 4
b0 5
b0 6
b0 7
b00000000000000000000000000000000 8
b1 9
b0 :
#27
b00000000 !
b0 "
b0 #
b00000000 $
b0 %
b0 &
b00 '
b0 (
b00 )
b0 *
b0 +
b0 ,
b0 -
b0 .
b0 /
b0 0
b00 1
b1 2
b0 3
b0 4
b0 5
b0 6
b0 7
b00000000000000000000000000000000 8
b0 9
b0 :
#28
b00000000 !
b0 "
b0 #
b00000000 $
b0 %
b0 &
b00 '
b0 (
b00 )
b0 *
b0 +
b0 ,
b0 -
b0 .
b0 /
b0 0
b00 1
b1 2
b0 3
b0 4
b0 5
b0 6
b0 7
b00000000000000000000000000000000 8
b1 9
b0 :
#29
b00000000 !
b0 "
b0 #
b00000000 $
b0 %
b0 &
b00 '
b0 (
b00 )
b0 *
b0 +
b0 ,
b0 -
b0 .
b0 /
b0 0
b00 1
b1 2
b0 3
b0 4
b0 5
b0 6
b0 7
b00000000000000000000000000000000 8
b0 9
b0 :
#30
b00000000 !
b0 "
b0 #
b00000000 $
b0 %
b0 &
b00 '
b0 (
b00 )
b0 *
b0 +
b0 ,
b0 -
b0 .
b0 /
b0 0
b00 1
b1 2
b0 3
b0 4
b0 5
b0 6
b0 7
b00000000000000000000000000000000 8
b1 9
b0 :
#31
b00000000 !
b0 "
b0 #
b00000000 $
b0 %
b0 &
b00 '
b0 (
b00 )
b0 *
b0 +
b0 ,
b0 -
b0 .
b0 /
b0 0
b00 1
b1 2
b0 3
b0 4
b0 5
b0 6
b0 7
b00000000000000000000000000000000 8
b0 9
b0 :
#32
b00000000 !
b0 "
b0 #
b00000000 $
b0 %
b0 &
b00 '
b0 (
b00 )
b0 *
b0 +
b0 ,
b0 -
b0 .
b0 /
b0 0
b00 1
b1 2
b0 3
b0 4
b0 5
b0 6
b0 7
b00000000000000000000000000000000 8
b1 9
b0 :
#33
b00000000 !
b0 "
b0 #
b00000000 $
b0 %
b0 &
b00 '
b0 (
b00 )
b0 *
b0 +
b0 ,
b0 -
b0 .
b0 /
b0 0
b00 1
b1 2
b0 3
b0 4
b0 5
b0 6
b0 7
b00000000000000000000000000000000 8
b0 9
b0 :
#34
b00000000 !
b0 "
b0 #
b00000000 $
b0 %
b0 &
b00 '
b0 (
b00 )
b0 *
b0 +
b0 ,
b0 -
b0 .
b0 /
b0 0
b00 1
b1 2
b0 3
b0 4
b0 5
b0 6
b0 7
b00000000000000000000000000000000 8
b1 9
b0 :
#35
b00000000 !
b0 "
b0 #
b00000000 $
b0 %
b0 &
b00 '
b0 (
b00 )
b0 *
b0 +
b0 ,
b0 -
b0 .
b0 /
b0 0
b00 1
b1 2
b0 3
b0 4
b0 5
b0 6
b0 7
b00000000000000000000000000000000 8
b0 9
b0 :
#36
b00000000 !
b0 "
b0 #
b00000000 $
b0 %
b0 &
b00 '
b0 (
b00 )
b0 *
b0 +
b0 ,
b0 -
b0 .
b0 /
b0 0
b00 1
b1 2
b0 3
b0 4
b0 5
b0 6
b0 7
b00000000000000000000000000000000 8
b1 9
b0 :
#37
b00000000 !
b0 "
b0 #
b00000000 $
b0 %
b0 &
b00 '
b0 (
b00 )
b0 *
b0 +
b0 ,
b0 -
b0 .
b0 /
b0 0
b00 1
b1 2
b0 3
b0 4
b0 5
b0 6
b0 7
b00000000000000000000000000000000 8
b0 9
b0 :
#38
b00000000 !
b0 "
b0 #
b00000000 $
b0 %
b0 &
b00 '
b0 (
b00 )
b0 *
b0 +
b0 ,
b0 -
b0 .
b0 /
b0 0
b00 1
b1 2
b0 3
b0 4
b0 5
b0 6
b0 7
b00000000000000000000000000000000 8
b1 9
b0 :
#39
b00000000 !
b0 "
b0 #
b00000000 $
b0 %
b0 &
b00 '
b0 (
b00 )
b0 *
b0 +
b0 ,
b0 -
b0 .
b0 /
b0 0
b00 1
b1 2
b0 3
b0 4
b0 5
b0 6
b0 7
b00000000000000000000000000000000 8
b0 9
b0 :
#40
b00000000 !
b0 "
b0 #
b00000000 $
b0 %
b0 &
b00 '
b0 (
b00 )
b0 *
b0 +
b0 ,
b0 -
b0 .
b0 /
b0 0
b00 1
b1 2
b0 3
b0 4
b0 5
b0 6
b0 7
b00000000000000000000000000000000 8
b1 9
b0 :
#41
b00000000 !
b0 "
b0 #
b00000000 $
b0 %
b0 &
b00 '
b0 (
b00 )
b0 *
b0 +
b0 ,
b0 -
b0 .
b0 /
b0 0
b00 1
b1 2
b0 3
b0 4
b0 5
b0 6
b0 7
b00000000000000000000000000000000 8
b0 9
b0 :
#42
b00000000 !
b0 "
b0 #
b00000000 $
b0 %
b0 &
b00 '
b0 (
b00 )
b0 *
b0 +
b0 ,
b0 -
b0 .
b0 /
b0 0
b00 1
b1 2
b0 3
b0 4
b0 5
b0 6
b0 7
b00000000000000000000000000000000 8
b1 9
b0 :
#43
b00000000 !
b0 "
b0 #
b00000000 $
b0 %
b0 &
b00 '
b0 (
b00 )
b0 *
b0 +
b0 ,
b0 -
b0 .
b0 /
b0 0
b00 1
b1 2
b0 3
b0 4
b0 5
b0 6
b0 7
b00000000000000000000000000000000 8
b0 9
b0 :
#44
b00000000 !
b0 "
b0 #
b00000000 $
b0 %
b0 &
b00 '
b0 (
b00 )
b0 *
b0 +
b0 ,
b0 -
b0 .
b0 /
b0 0
b00 1
b1 2
b0 3
b0 4
b0 5
b0 6
b0 7
b00000000000000000000000000000000 8
b1 9
b0 :
#45
b00000000 !
b0 "
b0 #
b00000000 $
b0 %
b0 &
b00 '
b0 (
b00 )
b0 *
b0 +
b0 ,
b0 -
b0 .
b0 /
b0 0
b00 1
b1 2
b0 3
b0 4
b0 5
b0 6
b0 7
b00000000000000000000000000000000 8
b0 9
b0 :
#46
b00000000 !
b0 "
b0 #
b00000000 $
b0 %
b0 &
b00 '
b0 (
b00 )
b0 *
b0 +
b0 ,
b0 -
b0 .
b0 /
b0 0
b00 1
b1 2
b0 3
b0 4
b0 5
b0 6
b0 7
b00000000000000000000000000000000 8
b1 9
b0 :
#47
b00000000 !
b0 "
b0 #
b00000000 $
b0 %
b0 &
b00 '
b0 (
b00 )
b0 *
b0 +
b0 ,
b0 -
b0 .
b0 /
b0 0
b00 1
b1 2
b0 3
b0 4
b0 5
b0 6
b0 7
b00000000000000000000000000000000 8
b0 9
b0 :
#48
b00000000 !
b0 "
b0 #
b00000000 $
b0 %
b0 &
b00 '
b0 (
b00 )
b0 *
b0 +
b0 ,
b0 -
b0 .
b0 /
b0 0
b00 1
b1 2
b0 3
b0 4
b0 5
b0 6
b0 7
b00000000000000000000000000000000 8
b1 9
b0 :
#49
b00000000 !
b0 "
b0 #
b00000000 $
b0 %
b0 &
b00 '
b0 (
b00 )
b0 *
b0 +
b0 ,
b0 -
b0 .
b0 /
b0 0
b00 1
b1 2
b0 3
b0 4
b0 5
b0 6
b0 7
b00000000000000000000000000000000 8
b0 9
b0 :
#50
b00000000 !
b0 "
b0 #
b00000000 $
b0 %
b0 &
b00 '
b0 (
b00 )
b0 *
b0 +
b0 ,
b0 -
b0 .
b0 /
b0 0
b00 1
b1 2
b0 3
b0 4
b0 5
b0 6
b0 7
b00000000000000000000000000000000 8
b1 9
b0 :
#51
b00000000 !
b0 "
b0 #
b00000000 $
b0 %
b0 &
b00 '
b0 (
b00 )
b0 *
b0 +
b0 ,
b0 -
b0 .
b0 /
b0 0
b00 1
b1 2
b0 3
b0 4
b0 5
b0 6
b0 7
b00000000000000000000000000000000 8
b0 9
b0 :
#52
b00000000 !
b0 "
b0 #
b00000000 $
b0 %
b0 &
b00 '
b0 (
b00 )
b0 *
b0 +
b0 ,
b0 -
b0 .
b0 /
b0 0
b00 1
b1 2
b0 3
b0 4
b0 5
b0 6
b0 7
b00000000000000000000000000000000 8
b1 9
b0 :
#53
b00000000 !
b0 "
b0 #
b00000000 $
b0 %
b0 &
b00 '
b0 (
b00 )
b0 *
b0 +
b0 ,
b0 -
b0 .
b0 /
b0 0
b00 1
b1 2
b0 3
b0 4
b0 5
b0 6
b0 7
b00000000000000000000000000000000 8
b0 9
b0 :
#54
b00000000 !
b0 "
b0 #
b00000000 $
b0 %
b0 &
b00 '
b0 (
b00 )
b0 *
b0 +
b0 ,
b0 -
b0 .
b0 /
b0 0
b00 1
b1 2
b0 3
b0 4
b0 5
b0 6
b0 7
b00000000000000000000000000000000 8
b1 9
b0 :
#55
b00000000 !
b0 "
b0 #
b00000000 $
b0 %
b0 &
b00 '
b0 (
b00 )
b0 *
b0 +
b0 ,
b0 -
b0 .
b0 /
b0 0
b00 1
b1 2
b0 3
b0 4
b0 5
b0 6
b0 7
b00000000000000000000000000000000 8
b0 9
b0 :
#56
b00000000 !
b0 "
b0 #
b00000000 $
b0 %
b0 &
b00 '
b0 (
b00 )
b0 *
b0 +
b0 ,
b0 -
b0 .
b0 /
b0 0
b00 1
b1 2
b0 3
b0 4
b0 5
b0 6
b0 7
b00000000000000000000000000000000 8
b1 9
b0 :
#57
b00000000 !
b0 "
b0 #
b00000000 $
b0 %
b0 &
b00 '
b0 (
b00 )
b0 *
b0 +
b0 ,
b0 -
b0 .
b0 /
b0 0
b00 1
b1 2
b0 3
b0 4
b0 5
b0 6
b0 7
b00000000000000000000000000000000 8
b0 9
b0 :
#58
b00000000 !
b0 "
b0 #
b00000000 $
b0 %
b0 &
b00 '
b0 (
b00 )
b0 *
b0 +
b0 ,
b0 -
b0 .
b0 /
b0 0
b00 1
b1 2
b0 3
b0 4
b0 5
b0 6
b0 7
b00000000000000000000000000000000 8
b1 9
b0 :
#59
b00000000 !
b0 "
b0 #
b00000000 $
b0 %
b0 &
b00 '
b0 (
b00 )
b0 *
b0 +
b0 ,
b0 -
b0 .
b0 /
b0 0
b00 1
b1 2
b0 3
b0 4
b0 5
b0 6
b0 7
b00000000000000000000000000000000 8
b0 9
b0 :
#60
b00000000 !
b0 "
b0 #
b00000000 $
b0 %
b0 &
b00 '
b0 (
b00 )
b0 *
b0 +
b0 ,
b0 -
b0 .
b0 /
b0 0
b00 1
b1 2
b0 3
b0 4
b0 5
b0 6
b0 7
b00000000000000000000000000000000 8
b1 9
b0 :
#61
b00000000 !
b0 "
b0 #
b00000000 $
b0 %
b0 &
b00 '
b0 (
b00 )
b0 *
b0 +
b0 ,
b0 -
b0 .
b0 /
b0 0
b00 1
b1 2
b0 3
b0 4
b0 5
b0 6
b0 7
b00000000000000000000000000000000 8
b0 9
b0 :
#62
b00000000 !
b0 "
b0 #
b00000000 $
b0 %
b0 &
b00 '
b0 (
b00 )
b0 *
b0 +
b0 ,
b0 -
b0 .
b0 /
b0 0
b00 1
b1 2
b0 3
b0 4
b0 5
b0 6
b0 7
b00000000000000000000000000000000 8
b1 9
b0 :
#63
b00000000 !
b0 "
b0 #
b00000000 $
b0 %
b0 &
b00 '
b0 (
b00 )
b0 *
b0 +
b0 ,
b0 -
b0 .
b0 /
b0 0
b00 1
b1 2
b0 3
b0 4
b0 5
b0 6
b0 7
b00000000000000000000000000000000 8
b0 9
b0 :
#64
b00000000 !
b0 "
b0 #
b00000000 $
b0 %
b0 &
b00 '
b0 (
b00 )
b0 *
b0 +
b0 ,
b0 -
b0 .
b0 /
b0 0
b00 1
b1 2
b0 3
b0 4
b0 5
b0 6
b0 7
b00000000000000000000000000000000 8
b1 9
b0 :
#65
b00000000 !
b0 "
b0 #
b00000000 $
b0 %
b0 &
b00 '
b0 (
b00 )
b0 *
b0 +
b0 ,
b0 -
b0 .
b0 /
b0 0
b00 1
b1 2
b0 3
b0 4
b0 5
b0 6
b0 7
b00000000000000000000000000000000 8
b0 9
b0 :
#66
b00000000 !
b0 "
b0 #
b00000000 $
b0 %
b0 &
b00 '
b0 (
b00 )
b0 *
b0 +
b0 ,
b0 -
b0 .
b0 /
b0 0
b00 1
b1 2
b0 3
b0 4
b0 5
b0 6
b0 7
b00000000000000000000000000000000 8
b1 9
b0 :
#67
b00000000 !
b0 "
b0 #
b00000000 $
b0 %
b0 &
b00 '
b0 (
b00 )
b0 *
b0 +
b0 ,
b0 -
b0 .
b0 /
b0 0
b00 1
b1 2
b0 3
b0 4
b0 5
b0 6
b0 7
b00000000000000000000000000000000 8
b0 9
b0 :
#68
b00000000 !
b0 "
b0 #
b00000000 $
b0 %
b0 &
b00 '
b0 (
b00 )
b0 *
b0 +
b0 ,
b0 -
b0 .
b0 /
b0 0
b00 1
b1 2
b0 3
b0 4
b0 5
b0 6
b0 7
b00000000000000000000000000000000 8
b1 9
b0 :
#69
b00000000 !
b0 "
b0 #
b00000000 $
b0 %
b0 &
b00 '
b0 (
b00 )
b0 *
b0 +
b0 ,
b0 -
b0 .
b0 /
b0 0
b00 1
b1 2
b0 3
b0 4
b0 5
b0 6
b0 7
b00000000000000000000000000000000 8
b0 9
b0 :
#70
b00000000 !
b0 "
b0 #
b00000000 $
b0 %
b0 &
b00 '
b0 (
b00 )
b0 *
b0 +
b0 ,
b0 -
b0 .
b0 /
b0 0
b00 1
b1 2
b0 3
b0 4
b0 5
b0 6
b0 7
b00000000000000000000000000000000 8
b1 9
b0 :
#71
b00000000 !
b0 "
b0 #
b00000000 $
b0 %
b0 &
b00 '
b0 (
b00 )
b0 *
b0 +
b0 ,
b0 -
b0 .
b0 /
b0 0
b00 1
b1 2
b0 3
b0 4
b0 5
b0 6
b0 7
b00000000000000000000000000000000 8
b0 9
b0 :
#72
b00000000 !
b0 "
b0 #
b00000000 $
b0 %
b0 &
b00 '
b0 (
b00 )
b0 *
b0 +
b0 ,
b0 -
b0 .
b0 /
b0 0
b00 1
b1 2
b0 3
b0 4
b0 5
b0 6
b0 7
b00000000000000000000000000000000 8
b1 9
b0 :
#73
b00000000 !
b0 "
b0 #
b00000000 $
b0 %
b0 &
b00 '
b0 (
b00 )
b0 *
b0 +
b0 ,
b0 -
b0 .
b0 /
b0 0
b00 1
b1 2
b0 3
b0 4
b0 5
b0 6
b0 7
b00000000000000000000000000000000 8
b0 9
b0 :
#74
b00000000 !
b0 "
b0 #
b00000000 $
b0 %
b0 &
b00 '
b0 (
b00 )
b0 *
b0 +
b0 ,
b0 -
b0 .
b0 /
b0 0
b00 1
b1 2
b0 3
b0 4
b0 5
b0 6
b0 7
b00000000000000000000000000000000 8
b1 9
b0 :
#75
b00000000 !
b0 "
b0 #
b00000000 $
b0 %
b0 &
b00 '
b0 (
b00 )
b0 *
b0 +
b0 ,
b0 -
b0 .
b0 /
b0 0
b00 1
b1 2
b0 3
b0 4
b0 5
b0 6
b0 7
b00000000000000000000000000000000 8
b0 9
b0 :
#76
b00000000 !
b0 "
b0 #
b00000000 $
b0 %
b0 &
b00 '
b0 (
b00 )
b0 *
b0 +
b0 ,
b0 -
b0 .
b0 /
b0 0
b00 1
b1 2
b0 3
b0 4
b0 5
b0 6
b0 7
b00000000000000000000000000000000 8
b1 9
b0 :
#77
b00000000 !
b0 "
b0 #
b00000000 $
b0 %
b0 &
b00 '
b0 (
b00 )
b0 *
b0 +
b0 ,
b0 -
b0 .
b0 /
b0 0
b00 1
b1 2
b0 3
b0 4
b0 5
b0 6
b0 7
b00000000000000000000000000000000 8
b0 9
b0 :
#78
b00000000 !
b0 "
b0 #
b00000000 $
b0 %
b0 &
b00 '
b0 (
b00 )
b0 *
b0 +
b0 ,
b0 -
b0 .
b0 /
b0 0
b00 1
b1 2
b0 3
b0 4
b0 5
b0 6
b0 7
b00000000000000000000000000000000 8
b1 9
b0 :
#79
b00000000 !
b0 "
b0 #
b00000000 $
b0 %
b0 &
b00 '
b0 (
b00 )
b0 *
b0 +
b0 ,
b0 -
b0 .
b0 /
b0 0
b00 1
b1 2
b0 3
b0 4
b0 5
b0 6
b0 7
b00000000000000000000000000000000 8
b0 9
b0 :
#80
b00000000 !
b0 "
b0 #
b00000000 $
b0 %
b0 &
b00 '
b0 (
b00 )
b0 *
b0 +
b0 ,
b0 -
b0 .
b0 /
b0 0
b00 1
b1 2
b0 3
b0 4
b0 5
b0 6
b0 7
b00000000000000000000000000000000 8
b1 9
b0 :
#81
b00000000 !
b0 "
b0 #
b00000000 $
b0 %
b0 &
b00 '
b0 (
b00 )
b0 *
b0 +
b0 ,
b0 -
b0 .
b0 /
b0 0
b00 1
b1 2
b0 3
b0 4
b0 5
b0 6
b0 7
b00000000000000000000000000000000 8
b0 9
b0 :
#82
b00000000 !
b0 "
b0 #
b00000000 $
b0 %
b0 &
b00 '
b0 (
b00 )
b0 *
b0 +
b0 ,
b0 -
b0 .
b0 /
b0 0
b00 1
b1 2
b0 3
b0 4
b0 5
b0 6
b0 7
b00000000000000000000000000000000 8
b1 9
b0 :
#83
b00000000 !
b0 "
b0 #
b00000000 $
b0 %
b0 &
b00 '
b0 (
b00 )
b0 *
b0 +
b0 ,
b0 -
b0 .
b0 /
b0 0
b00 1
b1 2
b0 3
b0 4
b0 5
b0 6
b0 7
b00000000000000000000000000000000 8
b0 9
b0 :
#84
b00000000 !
b0 "
b0 #
b00000000 $
b0 %
b0 &
b00 '
b0 (
b00 )
b0 *
b0 +
b0 ,
b0 -
b0 .
b0 /
b0 0
b00 1
b1 2
b0 3
b0 4
b0 5
b0 6
b0 7
b00000000000000000000000000000000 8
b1 9
b0 :
#85
b00000000 !
b0 "
b0 #
b00000000 $
b0 %
b0 &
b00 '
b0 (
b00 )
b0 *
b0 +
b0 ,
b0 -
b0 .
b0 /
b0 0
b00 1
b1 2
b0 3
b0 4
b0 5
b0 6
b0 7
b00000000000000000000000000000000 8
b0 9
b0 :
#86
b00000000 !
b0 "
b0 #
b00000000 $
b0 %
b0 &
b00 '
b0 (
b00 )
b0 *
b0 +
b0 ,
b0 -
b0 .
b0 /
b0 0
b00 1
b1 2
b0 3
b0 4
b0 5
b0 6
b0 7
b00000000000000000000000000000000 8
b1 9
b0 :
#87
b00000000 !
b0 "
b0 #
b00000000 $
b0 %
b0 &
b00 '
b0 (
b00 )
b0 *
b0 +
b0 ,
b0 -
b0 .
b0 /
b0 0
b00 1
b1 2
b0 3
b0 4
b0 5
b0 6
b0 7
b00000000000000000000000000000000 8
b0 9
b0 :
#88
b00000000 !
b0 "
b0 #
b00000000 $
b0 %
b0 &
b00 '
b0 (
b00 )
b0 *
b0 +
b0 ,
b0 -
b0 .
b0 /
b0 0
b00 1
b1 2
b0 3
b0 4
b0 5
b0 6
b0 7
b00000000000000000000000000000000 8
b1 9
b0 :
#89
b00000000 !
b0 "
b0 #
b00000000 $
b0 %
b0 &
b00 '
b0 (
b00 )
b0 *
b0 +
b0 ,
b0 -
b0 .
b0 /
b0 0
b00 1
b1 2
b0 3
b0 4
b0 5
b0 6
b0 7
b00000000000000000000000000000000 8
b0 9
b0 :
#90
b00000000 !
b0 "
b0 #
b00000000 $
b0 %
b0 &
b00 '
b0 (
b00 )
b0 *
b0 +
b0 ,
b0 -
b0 .
b0 /
b0 0
b00 1
b1 2
b0 3
b0 4
b0 5
b0 6
b0 7
b00000000000000000000000000000000 8
b1 9
b0 :
#91
b00000000 !
b0 "
b0 #
b00000000 $
b0 %
b0 &
b00 '
b0 (
b00 )
b0 *
b0 +
b0 ,
b0 -
b0 .
b0 /
b0 0
b00 1
b1 2
b0 3
b0 4
b0 5
b0 6
b0 7
b00000000000000000000000000000000 8
b0 9
b0 :
#92
b00000000 !
b0 "
b0 #
b00000000 $
b0 %
b0 &
b00 '
b0 (
b00 )
b0 *
b0 +
b0 ,
b0 -
b0 .
b0 /
b0 0
b00 1
b1 2
b0 3
b0 4
b0 5
b0 6
b0 7
b00000000000000000000000000000000 8
b1 9
b0 :
#93
b00000000 !
b0 "
b0 #
b00000000 $
b0 %
b0 &
b00 '
b0 (
b00 )
b0 *
b0 +
b0 ,
b0 -
b0 .
b0 /
b0 0
b00 1
b1 2
b0 3
b0 4
b0 5
b0 6
b0 7
b00000000000000000000000000000000 8
b0 9
b0 :
#94
b00000000 !
b0 "
b0 #
b00000000 $
b0 %
b0 &
b00 '
b0 (
b00 )
b0 *
b0 +
b0 ,
b0 -
b0 .
b0 /
b0 0
b00 1
b1 2
b0 3
b0 4
b0 5
b0 6
b0 7
b00000000000000000000000000000000 8
b1 9
b0 :
