captures/sof.vcd
$date
	2022-05-26 12:33
$end
$timescale 0ps $end
$scope dumped_signals $end
$var wire 8 ! usb_utmi_la_rx_data $end
$var wire 1 " usb_utmi_la_rx_active $end
$var wire 1 # usb_utmi_la_rx_valid $end
$var wire 8 $ usb_utmi_la_tx_data $end
$var wire 1 % usb_utmi_la_tx_valid $end
$var wire 1 & usb_utmi_la_tx_ready $end
$var wire 2 ' usb_utmi_la_xcvr_select $end
$var wire 1 ( usb_utmi_la_term_select $end
$var wire 2 ) usb_utmi_la_op_mode $end
$var wire 1 * usb_utmi_la_suspend $end
$var wire 1 + usb_utmi_la_id_pullup $end
$var wire 1 , usb_utmi_la_dm_pulldown $end
$var wire 1 - usb_utmi_la_dp_pulldown $end
$var wire 1 . usb_utmi_la_chrg_vbus $end
$var wire 1 / usb_utmi_la_dischrg_vbus $end
$var wire 1 0 usb_utmi_la_use_external_vbus_indicator $end
$var wire 2 1 usb_utmi_la_line_state $end
$var wire 1 2 usb_utmi_la_vbus_valid $end
$var wire 1 3 usb_utmi_la_session_valid $end
$var wire 1 4 usb_utmi_la_session_end $end
$var wire 1 5 usb_utmi_la_rx_error $end
$var wire 1 6 usb_utmi_la_host_disconnect $end
$var wire 1 7 usb_utmi_la_id_digital $end
$var wire 32 8 usb_utmi_la_rx_data32 $end
$var wire 1 9 scope_clk $end
$var wire 1 : scope_trig $end
$unscope  $end
$enddefinitions  $end
$dumpvars
bxxxxxxxx !
bx "
bx #
bxxxxxxxx $
bx %
bx &
bxx '
bx (
bxx )
bx *
bx +
bx ,
bx -
bx .
bx /
bx 0
bxx 1
bx 2
bx 3
bx 4
bx 5
bx 6
bx 7
bxxxxxxxxxxxxxxxxxxxxxxxxxxxxxxxx 8
bx 9
bx :
$end
#0
b00000000 !
b0 "
b0 #
b00000000 $
b0 %
b0 &
b00 '
b0 (
b00 )
b0 *
b0 +
b0 ,
b0 -
b0 .
b0 /
b0 0
b00 1
b1 2
b0 3
b0 4
b0 5
b0 6
b0 7
b00000000000000000000000000000000 8
b1 9
b0 :
#1
b00000000 !
b0 "
b0 #
b00000000 $
b0 %
b0 &
b00 '
b0 (
b00 )
b0 *
b0 +
b0 ,
b0 -
b0 .
b0 /
b0 0
b00 1
b1 2
b0 3
b0 4
b0 5
b0 6
b0 7
b00000000000000000000000000000000 8
b0 9
b0 :
#2
b00000000 !
b0 "
b0 #
b00000000 $
b0 %
b0 &
b00 '
b0 (
b00 )
b0 *
b0 +
b0 ,
b0 -
b0 .
b0 /
b0 0
b00 1
b1 2
b0 3
b0 4
b0 5
b0 6
b0 7
b00000000000000000000000000000000 8
b1 9
b0 :
#3
b00000000 !
b0 "
b0 #
b00000000 $
b0 %
b0 &
b00 '
b0 (
b00 )
b0 *
b0 +
b0 ,
b0 -
b0 .
b0 /
b0 0
b00 1
b1 2
b0 3
b0 4
b0 5
b0 6
b0 7
b00000000000000000000000000000000 8
b0 9
b0 :
#4
b00000000 !
b0 "
b0 #
b00000000 $
b0 %
b0 &
b00 '
b0 (
b00 )
b0 *
b0 +
b0 ,
b0 -
b0 .
b0 /
b0 0
b00 1
b1 2
b0 3
b0 4
b0 5
b0 6
b0 7
b00000000000000000000000000000000 8
b1 9
b0 :
#5
b00000000 !
b0 "
b0 #
b00000000 $
b0 %
b0 &
b00 '
b0 (
b00 )
b0 *
b0 +
b0 ,
b0 -
b0 .
b0 /
b0 0
b00 1
b1 2
b0 3
b0 4
b0 5
b0 6
b0 7
b00000000000000000000000000000000 8
b0 9
b0 :
#6
b00000000 !
b0 "
b0 #
b00000000 $
b0 %
b0 &
b00 '
b0 (
b00 )
b0 *
b0 +
b0 ,
b0 -
b0 .
b0 /
b0 0
b00 1
b1 2
b0 3
b0 4
b0 5
b0 6
b0 7
b00000000000000000000000000000000 8
b1 9
b0 :
#7
b00000000 !
b0 "
b0 #
b00000000 $
b0 %
b0 &
b00 '
b0 (
b00 )
b0 *
b0 +
b0 ,
b0 -
b0 .
b0 /
b0 0
b00 1
b1 2
b0 3
b0 4
b0 5
b0 6
b0 7
b00000000000000000000000000000000 8
b0 9
b0 :
#8
b00000000 !
b0 "
b0 #
b00000000 $
b0 %
b0 &
b00 '
b0 (
b00 )
b0 *
b0 +
b0 ,
b0 -
b0 .
b0 /
b0 0
b00 1
b1 2
b0 3
b0 4
b0 5
b0 6
b0 7
b00000000000000000000000000000000 8
b1 9
b0 :
#9
b00000000 !
b0 "
b0 #
b00000000 $
b0 %
b0 &
b00 '
b0 (
b00 )
b0 *
b0 +
b0 ,
b0 -
b0 .
b0 /
b0 0
b00 1
b1 2
b0 3
b0 4
b0 5
b0 6
b0 7
b00000000000000000000000000000000 8
b0 9
b0 :
#10
b00000000 !
b0 "
b0 #
b00000000 $
b0 %
b0 &
b00 '
b0 (
b00 )
b0 *
b0 +
b0 ,
b0 -
b0 .
b0 /
b0 0
b00 1
b1 2
b0 3
b0 4
b0 5
b0 6
b0 7
b00000000000000000000000000000000 8
b1 9
b0 :
#11
b00000000 !
b0 "
b0 #
b00000000 $
b0 %
b0 &
b00 '
b0 (
b00 )
b0 *
b0 +
b0 ,
b0 -
b0 .
b0 /
b0 0
b00 1
b1 2
b0 3
b0 4
b0 5
b0 6
b0 7
b00000000000000000000000000000000 8
b0 9
b0 :
#12
b00000000 !
b0 "
b0 #
b00000000 $
b0 %
b0 &
b00 '
b0 (
b00 )
b0 *
b0 +
b0 ,
b0 -
b0 .
b0 /
b0 0
b00 1
b1 2
b0 3
b0 4
b0 5
b0 6
b0 7
b00000000000000000000000000000000 8
b1 9
b0 :
#13
b00000000 !
b0 "
b0 #
b00000000 $
b0 %
b0 &
b00 '
b0 (
b00 )
b0 *
b0 +
b0 ,
b0 -
b0 .
b0 /
b0 0
b00 1
b1 2
b0 3
b0 4
b0 5
b0 6
b0 7
b00000000000000000000000000000000 8
b0 9
b0 :
#14
b00000000 !
b0 "
b0 #
b00000000 $
b0 %
b0 &
b00 '
b0 (
b00 )
b0 *
b0 +
b0 ,
b0 -
b0 .
b0 /
b0 0
b00 1
b1 2
b0 3
b0 4
b0 5
b0 6
b0 7
b00000000000000000000000000000000 8
b1 9
b0 :
#15
b00000000 !
b0 "
b0 #
b00000000 $
b0 %
b0 &
b00 '
b0 (
b00 )
b0 *
b0 +
b0 ,
b0 -
b0 .
b0 /
b0 0
b00 1
b1 2
b0 3
b0 4
b0 5
b0 6
b0 7
b00000000000000000000000000000000 8
b0 9
b0 :
#16
b00000000 !
b0 "
b0 #
b00000000 $
b0 %
b0 &
b00 '
b0 (
b00 )
b0 *
b0 +
b0 ,
b0 -
b0 .
b0 /
b0 0
b00 1
b1 2
b0 3
b0 4
b0 5
b0 6
b0 7
b00000000000000000000000000000000 8
b1 9
b0 :
#17
b00000000 !
b0 "
b0 #
b00000000 $
b0 %
b0 &
b00 '
b0 (
b00 )
b0 *
b0 +
b0 ,
b0 -
b0 .
b0 /
b0 0
b00 1
b1 2
b0 3
b0 4
b0 5
b0 6
b0 7
b00000000000000000000000000000000 8
b0 9
b0 :
#18
b00000000 !
b0 "
b0 #
b00000000 $
b0 %
b0 &
b00 '
b0 (
b00 )
b0 *
b0 +
b0 ,
b0 -
b0 .
b0 /
b0 0
b00 1
b1 2
b0 3
b0 4
b0 5
b0 6
b0 7
b00000000000000000000000000000000 8
b1 9
b0 :
#19
b00000000 !
b0 "
b0 #
b00000000 $
b0 %
b0 &
b00 '
b0 (
b00 )
b0 *
b0 +
b0 ,
b0 -
b0 .
b0 /
b0 0
b00 1
b1 2
b0 3
b0 4
b0 5
b0 6
b0 7
b00000000000000000000000000000000 8
b0 9
b0 :
#20
b00000000 !
b0 "
b0 #
b00000000 $
b0 %
b0 &
b00 '
b0 (
b00 )
b0 *
b0 +
b0 ,
b0 -
b0 .
b0 /
b0 0
b00 1
b1 2
b0 3
b0 4
b0 5
b0 6
b0 7
b00000000000000000000000000000000 8
b1 9
b0 :
#21
b00000000 !
b0 "
b0 #
b00000000 $
b0 %
b0 &
b00 '
b0 (
b00 )
b0 *
b0 +
b0 ,
b0 -
b0 .
b0 /
b0 0
b00 1
b1 2
b0 3
b0 4
b0 5
b0 6
b0 7
b00000000000000000000000000000000 8
b0 9
b0 :
#22
b00000000 !
b0 "
b0 #
b00000000 $
b0 %
b0 &
b00 '
b0 (
b00 )
b0 *
b0 +
b0 ,
b0 -
b0 .
b0 /
b0 0
b00 1
b1 2
b0 3
b0 4
b0 5
b0 6
b0 7
b00000000000000000000000000000000 8
b1 9
b0 :
#23
b00000000 !
b0 "
b0 #
b00000000 $
b0 %
b0 &
b00 '
b0 (
b00 )
b0 *
b0 +
b0 ,
b0 -
b0 .
b0 /
b0 0
b00 1
b1 2
b0 3
b0 4
b0 5
b0 6
b0 7
b00000000000000000000000000000000 8
b0 9
b0 :
#24
b00000000 !
b0 "
b0 #
b00000000 $
b0 %
b0 &
b00 '
b0 (
b00 )
b0 *
b0 +
b0 ,
b0 -
b0 .
b0 /
b0 0
b00 1
b1 2
b0 3
b0 4
b0 5
b0 6
b0 7
b00000000000000000000000000000000 8
b1 9
b0 :
#25
b00000000 !
b0 "
b0 #
b00000000 $
b0 %
b0 &
b00 '
b0 (
b00 )
b0 *
b0 +
b0 ,
b0 -
b0 .
b0 /
b0 0
b00 1
b1 2
b0 3
b0 4
b0 5
b0 6
b0 7
b00000000000000000000000000000000 8
b0 9
b0 :
#26
b00000000 !
b0 "
b0 #
b00000000 $
b0 %
b0 &
b00 '
b0 (
b00 )
b0 *
b0 +
b0 ,
b0 -
b0 .
b0 /
b0 0
b00 1
b1 2
b0 3
b0 4
b0 5
b0 6
b0 7
b00000000000000000000000000000000 8
b1 9
b0 :
#27
b00000000 !
b0 "
b0 #
b00000000 $
b0 %
b0 &
b00 '
b0 (
b00 )
b0 *
b0 +
b0 ,
b0 -
b0 .
b0 /
b0 0
b00 1
b1 2
b0 3
b0 4
b0 5
b0 6
b0 7
b00000000000000000000000000000000 8
b0 9
b0 :
#28
b00000000 !
b0 "
b0 #
b00000000 $
b0 %
b0 &
b00 '
b0 (
b00 )
b0 *
b0 +
b0 ,
b0 -
b0 .
b0 /
b0 0
b00 1
b1 2
b0 3
b0 4
b0 5
b0 6
b0 7
b00000000000000000000000000000000 8
b1 9
b0 :
#29
b00000000 !
b0 "
b0 #
b00000000 $
b0 %
b0 &
b00 '
b0 (
b00 )
b0 *
b0 +
b0 ,
b0 -
b0 .
b0 /
b0 0
b00 1
b1 2
b0 3
b0 4
b0 5
b0 6
b0 7
b00000000000000000000000000000000 8
b0 9
b0 :
#30
b00000000 !
b0 "
b0 #
b00000000 $
b0 %
b0 &
b00 '
b0 (
b00 )
b0 *
b0 +
b0 ,
b0 -
b0 .
b0 /
b0 0
b00 1
b1 2
b0 3
b0 4
b0 5
b0 6
b0 7
b00000000000000000000000000000000 8
b1 9
b0 :
#31
b00000000 !
b0 "
b0 #
b00000000 $
b0 %
b0 &
b00 '
b0 (
b00 )
b0 *
b0 +
b0 ,
b0 -
b0 .
b0 /
b0 0
b00 1
b1 2
b0 3
b0 4
b0 5
b0 6
b0 7
b00000000000000000000000000000000 8
b0 9
b0 :
#32
b00000000 !
b0 "
b0 #
b00000000 $
b0 %
b0 &
b00 '
b0 (
b00 )
b0 *
b0 +
b0 ,
b0 -
b0 .
b0 /
b0 0
b00 1
b1 2
b0 3
b0 4
b0 5
b0 6
b0 7
b00000000000000000000000000000000 8
b1 9
b1 :
#33
b00000000 !
b0 "
b0 #
b00000000 $
b0 %
b0 &
b00 '
b0 (
b00 )
b0 *
b0 +
b0 ,
b0 -
b0 .
b0 /
b0 0
b00 1
b1 2
b0 3
b0 4
b0 5
b0 6
b0 7
b00000000000000000000000000000000 8
b0 9
b1 :
#34
b00000000 !
b0 "
b0 #
b00000000 $
b0 %
b0 &
b00 '
b0 (
b00 )
b0 *
b0 +
b0 ,
b0 -
b0 .
b0 /
b0 0
b00 1
b1 2
b0 3
b0 4
b0 5
b0 6
b0 7
b00000000000000000000000000000000 8
b1 9
b1 :
#35
b00000000 !
b0 "
b0 #
b00000000 $
b0 %
b0 &
b00 '
b0 (
b00 )
b0 *
b0 +
b0 ,
b0 -
b0 .
b0 /
b0 0
b00 1
b1 2
b0 3
b0 4
b0 5
b0 6
b0 7
b00000000000000000000000000000000 8
b0 9
b1 :
#36
b00000000 !
b0 "
b0 #
b00000000 $
b0 %
b0 &
b00 '
b0 (
b00 )
b0 *
b0 +
b0 ,
b0 -
b0 .
b0 /
b0 0
b00 1
b1 2
b0 3
b0 4
b0 5
b0 6
b0 7
b00000000000000000000000000000000 8
b1 9
b1 :
#37
b00000000 !
b0 "
b0 #
b00000000 $
b0 %
b0 &
b00 '
b0 (
b00 )
b0 *
b0 +
b0 ,
b0 -
b0 .
b0 /
b0 0
b00 1
b1 2
b0 3
b0 4
b0 5
b0 6
b0 7
b00000000000000000000000000000000 8
b0 9
b1 :
#38
b00000000 !
b0 "
b0 #
b00000000 $
b0 %
b0 &
b00 '
b0 (
b00 )
b0 *
b0 +
b0 ,
b0 -
b0 .
b0 /
b0 0
b00 1
b1 2
b0 3
b0 4
b0 5
b0 6
b0 7
b00000000000000000000000000000000 8
b1 9
b1 :
#39
b00000000 !
b0 "
b0 #
b00000000 $
b0 %
b0 &
b00 '
b0 (
b00 )
b0 *
b0 +
b0 ,
b0 -
b0 .
b0 /
b0 0
b00 1
b1 2
b0 3
b0 4
b0 5
b0 6
b0 7
b00000000000000000000000000000000 8
b0 9
b1 :
#40
b00000000 !
b0 "
b0 #
b00000000 $
b0 %
b0 &
b00 '
b0 (
b00 )
b0 *
b0 +
b0 ,
b0 -
b0 .
b0 /
b0 0
b00 1
b1 2
b0 3
b0 4
b0 5
b0 6
b0 7
b00000000000000000000000000000000 8
b1 9
b1 :
#41
b00000000 !
b0 "
b0 #
b00000000 $
b0 %
b0 &
b00 '
b0 (
b00 )
b0 *
b0 +
b0 ,
b0 -
b0 .
b0 /
b0 0
b00 1
b1 2
b0 3
b0 4
b0 5
b0 6
b0 7
b00000000000000000000000000000000 8
b0 9
b1 :
#42
b00000000 !
b0 "
b0 #
b00000000 $
b0 %
b0 &
b00 '
b0 (
b00 )
b0 *
b0 +
b0 ,
b0 -
b0 .
b0 /
b0 0
b00 1
b1 2
b0 3
b0 4
b0 5
b0 6
b0 7
b00000000000000000000000000000000 8
b1 9
b1 :
#43
b00000000 !
b0 "
b0 #
b00000000 $
b0 %
b0 &
b00 '
b0 (
b00 )
b0 *
b0 +
b0 ,
b0 -
b0 .
b0 /
b0 0
b00 1
b1 2
b0 3
b0 4
b0 5
b0 6
b0 7
b00000000000000000000000000000000 8
b0 9
b1 :
#44
b00000000 !
b0 "
b0 #
b00000000 $
b0 %
b0 &
b00 '
b0 (
b00 )
b0 *
b0 +
b0 ,
b0 -
b0 .
b0 /
b0 0
b00 1
b1 2
b0 3
b0 4
b0 5
b0 6
b0 7
b00000000000000000000000000000000 8
b1 9
b1 :
#45
b00000000 !
b0 "
b0 #
b00000000 $
b0 %
b0 &
b00 '
b0 (
b00 )
b0 *
b0 +
b0 ,
b0 -
b0 .
b0 /
b0 0
b00 1
b1 2
b0 3
b0 4
b0 5
b0 6
b0 7
b00000000000000000000000000000000 8
b0 9
b1 :
#46
b00001101 !
b0 "
b0 #
b00000000 $
b0 %
b0 &
b00 '
b0 (
b00 )
b0 *
b0 +
b0 ,
b0 -
b0 .
b0 /
b0 0
b01 1
b1 2
b0 3
b0 4
b0 5
b0 6
b0 7
b00000000000000000000000000000000 8
b1 9
b1 :
#47
b00001101 !
b0 "
b0 #
b00000000 $
b0 %
b0 &
b00 '
b0 (
b00 )
b0 *
b0 +
b0 ,
b0 -
b0 .
b0 /
b0 0
b01 1
b1 2
b0 3
b0 4
b0 5
b0 6
b0 7
b00000000000000000000000000000000 8
b0 9
b1 :
#48
b00011101 !
b0 "
b0 #
b00000000 $
b0 %
b0 &
b00 '
b0 (
b00 )
b0 *
b0 +
b0 ,
b0 -
b0 .
b0 /
b0 0
b01 1
b1 2
b0 3
b0 4
b0 5
b0 6
b0 7
b00000000000000000000000000001101 8
b1 9
b1 :
#49
b00011101 !
b0 "
b0 #
b00000000 $
b0 %
b0 &
b00 '
b0 (
b00 )
b0 *
b0 +
b0 ,
b0 -
b0 .
b0 /
b0 0
b01 1
b1 2
b0 3
b0 4
b0 5
b0 6
b0 7
b00000000000000000000000000001101 8
b0 9
b1 :
#50
b00011101 !
b1 "
b0 #
b00000000 $
b0 %
b0 &
b00 '
b0 (
b00 )
b0 *
b0 +
b0 ,
b0 -
b0 .
b0 /
b0 0
b01 1
b1 2
b0 3
b0 4
b0 5
b0 6
b0 7
b00000000000000000000110100011101 8
b1 9
b1 :
#51
b00011101 !
b1 "
b0 #
b00000000 $
b0 %
b0 &
b00 '
b0 (
b00 )
b0 *
b0 +
b0 ,
b0 -
b0 .
b0 /
b0 0
b01 1
b1 2
b0 3
b0 4
b0 5
b0 6
b0 7
b00000000000000000000110100011101 8
b0 9
b1 :
#52
b00011101 !
b1 "
b0 #
b00000000 $
b0 %
b0 &
b00 '
b0 (
b00 )
b0 *
b0 +
b0 ,
b0 -
b0 .
b0 /
b0 0
b01 1
b1 2
b0 3
b0 4
b0 5
b0 6
b0 7
b00000000000011010001110100011101 8
b1 9
b1 :
#53
b00011101 !
b1 "
b0 #
b00000000 $
b0 %
b0 &
b00 '
b0 (
b00 )
b0 *
b0 +
b0 ,
b0 -
b0 .
b0 /
b0 0
b01 1
b1 2
b0 3
b0 4
b0 5
b0 6
b0 7
b00000000000011010001110100011101 8
b0 9
b1 :
#54
b00011101 !
b1 "
b0 #
b00000000 $
b0 %
b0 &
b00 '
b0 (
b00 )
b0 *
b0 +
b0 ,
b0 -
b0 .
b0 /
b0 0
b01 1
b1 2
b0 3
b0 4
b0 5
b0 6
b0 7
b00001101000111010001110100011101 8
b1 9
b1 :
#55
b00011101 !
b1 "
b0 #
b00000000 $
b0 %
b0 &
b00 '
b0 (
b00 )
b0 *
b0 +
b0 ,
b0 -
b0 .
b0 /
b0 0
b01 1
b1 2
b0 3
b0 4
b0 5
b0 6
b0 7
b00001101000111010001110100011101 8
b0 9
b1 :
#56
b00011101 !
b1 "
b0 #
b00000000 $
b0 %
b0 &
b00 '
b0 (
b00 )
b0 *
b0 +
b0 ,
b0 -
b0 .
b0 /
b0 0
b01 1
b1 2
b0 3
b0 4
b0 5
b0 6
b0 7
b00011101000111010001110100011101 8
b1 9
b1 :
#57
b00011101 !
b1 "
b0 #
b00000000 $
b0 %
b0 &
b00 '
b0 (
b00 )
b0 *
b0 +
b0 ,
b0 -
b0 .
b0 /
b0 0
b01 1
b1 2
b0 3
b0 4
b0 5
b0 6
b0 7
b00011101000111010001110100011101 8
b0 9
b1 :
#58
b10100101 !
b1 "
b1 #
b00000000 $
b0 %
b0 &
b00 '
b0 (
b00 )
b0 *
b0 +
b0 ,
b0 -
b0 .
b0 /
b0 0
b01 1
b1 2
b0 3
b0 4
b0 5
b0 6
b0 7
b00011101000111010001110100011101 8
b1 9
b1 :
#59
b10100101 !
b1 "
b1 #
b00000000 $
b0 %
b0 &
b00 '
b0 (
b00 )
b0 *
b0 +
b0 ,
b0 -
b0 .
b0 /
b0 0
b01 1
b1 2
b0 3
b0 4
b0 5
b0 6
b0 7
b00011101000111010001110100011101 8
b0 9
b1 :
#60
b00000001 !
b1 "
b1 #
b00000000 $
b0 %
b0 &
b00 '
b0 (
b00 )
b0 *
b0 +
b0 ,
b0 -
b0 .
b0 /
b0 0
b01 1
b1 2
b0 3
b0 4
b0 5
b0 6
b0 7
b00011101000111010001110110100101 8
b1 9
b1 :
#61
b00000001 !
b1 "
b1 #
b00000000 $
b0 %
b0 &
b00 '
b0 (
b00 )
b0 *
b0 +
b0 ,
b0 -
b0 .
b0 /
b0 0
b01 1
b1 2
b0 3
b0 4
b0 5
b0 6
b0 7
b00011101000111010001110110100101 8
b0 9
b1 :
#62
b01100101 !
b1 "
b1 #
b00000000 $
b0 %
b0 &
b00 '
b0 (
b00 )
b0 *
b0 +
b0 ,
b0 -
b0 .
b0 /
b0 0
b01 1
b1 2
b0 3
b0 4
b0 5
b0 6
b0 7
b00011101000111011010010100000001 8
b1 9
b1 :
#63
b01100101 !
b1 "
b1 #
b00000000 $
b0 %
b0 &
b00 '
b0 (
b00 )
b0 *
b0 +
b0 ,
b0 -
b0 .
b0 /
b0 0
b01 1
b1 2
b0 3
b0 4
b0 5
b0 6
b0 7
b00011101000111011010010100000001 8
b0 9
b1 :
#64
b00011101 !
b1 "
b0 #
b00000000 $
b0 %
b0 &
b00 '
b0 (
b00 )
b0 *
b0 +
b0 ,
b0 -
b0 .
b0 /
b0 0
b01 1
b1 2
b0 3
b0 4
b0 5
b0 6
b0 7
b00011101101001010000000101100101 8
b1 9
b1 :
#65
b00011101 !
b1 "
b0 #
b00000000 $
b0 %
b0 &
b00 '
b0 (
b00 )
b0 *
b0 +
b0 ,
b0 -
b0 .
b0 /
b0 0
b01 1
b1 2
b0 3
b0 4
b0 5
b0 6
b0 7
b00011101101001010000000101100101 8
b0 9
b1 :
#66
b00011101 !
b1 "
b0 #
b00000000 $
b0 %
b0 &
b00 '
b0 (
b00 )
b0 *
b0 +
b0 ,
b0 -
b0 .
b0 /
b0 0
b01 1
b1 2
b0 3
b0 4
b0 5
b0 6
b0 7
b10100101000000010110010100011101 8
b1 9
b1 :
#67
b00011101 !
b1 "
b0 #
b00000000 $
b0 %
b0 &
b00 '
b0 (
b00 )
b0 *
b0 +
b0 ,
b0 -
b0 .
b0 /
b0 0
b01 1
b1 2
b0 3
b0 4
b0 5
b0 6
b0 7
b10100101000000010110010100011101 8
b0 9
b1 :
#68
b00011101 !
b1 "
b0 #
b00000000 $
b0 %
b0 &
b00 '
b0 (
b00 )
b0 *
b0 +
b0 ,
b0 -
b0 .
b0 /
b0 0
b01 1
b1 2
b0 3
b0 4
b0 5
b0 6
b0 7
b00000001011001010001110100011101 8
b1 9
b1 :
#69
b00011101 !
b1 "
b0 #
b00000000 $
b0 %
b0 &
b00 '
b0 (
b00 )
b0 *
b0 +
b0 ,
b0 -
b0 .
b0 /
b0 0
b01 1
b1 2
b0 3
b0 4
b0 5
b0 6
b0 7
b00000001011001010001110100011101 8
b0 9
b1 :
#70
b00011100 !
b1 "
b0 #
b00000000 $
b0 %
b0 &
b00 '
b0 (
b00 )
b0 *
b0 +
b0 ,
b0 -
b0 .
b0 /
b0 0
b00 1
b1 2
b0 3
b0 4
b0 5
b0 6
b0 7
b01100101000111010001110100011101 8
b1 9
b1 :
#71
b00011100 !
b1 "
b0 #
b00000000 $
b0 %
b0 &
b00 '
b0 (
b00 )
b0 *
b0 +
b0 ,
b0 -
b0 .
b0 /
b0 0
b00 1
b1 2
b0 3
b0 4
b0 5
b0 6
b0 7
b01100101000111010001110100011101 8
b0 9
b1 :
#72
b00000000 !
b0 "
b0 #
b00000000 $
b0 %
b0 &
b00 '
b0 (
b00 )
b0 *
b0 +
b0 ,
b0 -
b0 .
b0 /
b0 0
b00 1
b1 2
b0 3
b0 4
b0 5
b0 6
b0 7
b00011101000111010001110100011100 8
b1 9
b1 :
#73
b00000000 !
b0 "
b0 #
b00000000 $
b0 %
b0 &
b00 '
b0 (
b00 )
b0 *
b0 +
b0 ,
b0 -
b0 .
b0 /
b0 0
b00 1
b1 2
b0 3
b0 4
b0 5
b0 6
b0 7
b00011101000111010001110100011100 8
b0 9
b1 :
#74
b00000000 !
b0 "
b0 #
b00000000 $
b0 %
b0 &
b00 '
b0 (
b00 )
b0 *
b0 +
b0 ,
b0 -
b0 .
b0 /
b0 0
b00 1
b1 2
b0 3
b0 4
b0 5
b0 6
b0 7
b00011101000111010001110000000000 8
b1 9
b1 :
#75
b00000000 !
b0 "
b0 #
b00000000 $
b0 %
b0 &
b00 '
b0 (
b00 )
b0 *
b0 +
b0 ,
b0 -
b0 .
b0 /
b0 0
b00 1
b1 2
b0 3
b0 4
b0 5
b0 6
b0 7
b00011101000111010001110000000000 8
b0 9
b1 :
#76
b00000000 !
b0 "
b0 #
b00000000 $
b0 %
b0 &
b00 '
b0 (
b00 )
b0 *
b0 +
b0 ,
b0 -
b0 .
b0 /
b0 0
b00 1
b1 2
b0 3
b0 4
b0 5
b0 6
b0 7
b00011101000111000000000000000000 8
b1 9
b1 :
#77
b00000000 !
b0 "
b0 #
b00000000 $
b0 %
b0 &
b00 '
b0 (
b00 )
b0 *
b0 +
b0 ,
b0 -
b0 .
b0 /
b0 0
b00 1
b1 2
b0 3
b0 4
b0 5
b0 6
b0 7
b00011101000111000000000000000000 8
b0 9
b1 :
#78
b00001100 !
b0 "
b0 #
b00000000 $
b0 %
b0 &
b00 '
b0 (
b00 )
b0 *
b0 +
b0 ,
b0 -
b0 .
b0 /
b0 0
b00 1
b1 2
b0 3
b0 4
b0 5
b0 6
b0 7
b00011100000000000000000000000000 8
b1 9
b1 :
#79
b00001100 !
b0 "
b0 #
b00000000 $
b0 %
b0 &
b00 '
b0 (
b00 )
b0 *
b0 +
b0 ,
b0 -
b0 .
b0 /
b0 0
b00 1
b1 2
b0 3
b0 4
b0 5
b0 6
b0 7
b00011100000000000000000000000000 8
b0 9
b1 :
#80
b00000000 !
b0 "
b0 #
b00000000 $
b0 %
b0 &
b00 '
b0 (
b00 )
b0 *
b0 +
b0 ,
b0 -
b0 .
b0 /
b0 0
b00 1
b1 2
b0 3
b0 4
b0 5
b0 6
b0 7
b00000000000000000000000000001100 8
b1 9
b1 :
#81
b00000000 !
b0 "
b0 #
b00000000 $
b0 %
b0 &
b00 '
b0 (
b00 )
b0 *
b0 +
b0 ,
b0 -
b0 .
b0 /
b0 0
b00 1
b1 2
b0 3
b0 4
b0 5
b0 6
b0 7
b00000000000000000000000000001100 8
b0 9
b1 :
#82
b00000000 !
b0 "
b0 #
b00000000 $
b0 %
b0 &
b00 '
b0 (
b00 )
b0 *
b0 +
b0 ,
b0 -
b0 .
b0 /
b0 0
b00 1
b1 2
b0 3
b0 4
b0 5
b0 6
b0 7
b00000000000000000000110000000000 8
b1 9
b1 :
#83
b00000000 !
b0 "
b0 #
b00000000 $
b0 %
b0 &
b00 '
b0 (
b00 )
b0 *
b0 +
b0 ,
b0 -
b0 .
b0 /
b0 0
b00 1
b1 2
b0 3
b0 4
b0 5
b0 6
b0 7
b00000000000000000000110000000000 8
b0 9
b1 :
#84
b00000000 !
b0 "
b0 #
b00000000 $
b0 %
b0 &
b00 '
b0 (
b00 )
b0 *
b0 +
b0 ,
b0 -
b0 .
b0 /
b0 0
b00 1
b1 2
b0 3
b0 4
b0 5
b0 6
b0 7
b00000000000011000000000000000000 8
b1 9
b1 :
#85
b00000000 !
b0 "
b0 #
b00000000 $
b0 %
b0 &
b00 '
b0 (
b00 )
b0 *
b0 +
b0 ,
b0 -
b0 .
b0 /
b0 0
b00 1
b1 2
b0 3
b0 4
b0 5
b0 6
b0 7
b00000000000011000000000000000000 8
b0 9
b1 :
#86
b00000000 !
b0 "
b0 #
b00000000 $
b0 %
b0 &
b00 '
b0 (
b00 )
b0 *
b0 +
b0 ,
b0 -
b0 .
b0 /
b0 0
b00 1
b1 2
b0 3
b0 4
b0 5
b0 6
b0 7
b00001100000000000000000000000000 8
b1 9
b1 :
#87
b00000000 !
b0 "
b0 #
b00000000 $
b0 %
b0 &
b00 '
b0 (
b00 )
b0 *
b0 +
b0 ,
b0 -
b0 .
b0 /
b0 0
b00 1
b1 2
b0 3
b0 4
b0 5
b0 6
b0 7
b00001100000000000000000000000000 8
b0 9
b1 :
#88
b00000000 !
b0 "
b0 #
b00000000 $
b0 %
b0 &
b00 '
b0 (
b00 )
b0 *
b0 +
b0 ,
b0 -
b0 .
b0 /
b0 0
b00 1
b1 2
b0 3
b0 4
b0 5
b0 6
b0 7
b00000000000000000000000000000000 8
b1 9
b1 :
#89
b00000000 !
b0 "
b0 #
b00000000 $
b0 %
b0 &
b00 '
b0 (
b00 )
b0 *
b0 +
b0 ,
b0 -
b0 .
b0 /
b0 0
b00 1
b1 2
b0 3
b0 4
b0 5
b0 6
b0 7
b00000000000000000000000000000000 8
b0 9
b1 :
#90
b00000000 !
b0 "
b0 #
b00000000 $
b0 %
b0 &
b00 '
b0 (
b00 )
b0 *
b0 +
b0 ,
b0 -
b0 .
b0 /
b0 0
b00 1
b1 2
b0 3
b0 4
b0 5
b0 6
b0 7
b00000000000000000000000000000000 8
b1 9
b1 :
#91
b00000000 !
b0 "
b0 #
b00000000 $
b0 %
b0 &
b00 '
b0 (
b00 )
b0 *
b0 +
b0 ,
b0 -
b0 .
b0 /
b0 0
b00 1
b1 2
b0 3
b0 4
b0 5
b0 6
b0 7
b00000000000000000000000000000000 8
b0 9
b1 :
#92
b00000000 !
b0 "
b0 #
b00000000 $
b0 %
b0 &
b00 '
b0 (
b00 )
b0 *
b0 +
b0 ,
b0 -
b0 .
b0 /
b0 0
b00 1
b1 2
b0 3
b0 4
b0 5
b0 6
b0 7
b00000000000000000000000000000000 8
b1 9
b1 :
#93
b00000000 !
b0 "
b0 #
b00000000 $
b0 %
b0 &
b00 '
b0 (
b00 )
b0 *
b0 +
b0 ,
b0 -
b0 .
b0 /
b0 0
b00 1
b1 2
b0 3
b0 4
b0 5
b0 6
b0 7
b00000000000000000000000000000000 8
b0 9
b1 :
#94
b00000000 !
b0 "
b0 #
b00000000 $
b0 %
b0 &
b00 '
b0 (
b00 )
b0 *
b0 +
b0 ,
b0 -
b0 .
b0 /
b0 0
b00 1
b1 2
b0 3
b0 4
b0 5
b0 6
b0 7
b00000000000000000000000000000000 8
b1 9
b1 :
